"../../../Engine/Content/Functions/Engine_MaterialFunctions01/Opacity/CameraDepthFade.uasset" 0
"../../../Engine/Content/EngineMaterials/T_Default_Material_Grid_M.uasset" 1
"../../../Engine/Content/EngineMaterials/T_Default_Material_Grid_N.uasset" 2
"../../../Engine/Content/EngineMaterials/WorldGridMaterial.uasset" 3
"../../../Engine/Content/ArtTools/RenderToTexture/Meshes/S_1_Unit_Plane.uasset" 4
"../../../Engine/Content/BasicShapes/Cube.uasset" 5
"../../../Engine/Content/EngineMaterials/DefaultMaterial.uasset" 6
"../../../Engine/Content/BasicShapes/Cylinder.uasset" 7
"../../../Engine/Content/BasicShapes/Plane.uasset" 8
"../../../Engine/Content/BasicShapes/Sphere.uasset" 9
"../../../Engine/Content/EngineMaterials/DefaultPhysicalMaterial.uasset" 10
"../../../Engine/Content/BufferVisualization/AmbientOcclusion.uasset" 11
"../../../Engine/Content/BufferVisualization/BaseColor.uasset" 12
"../../../Engine/Content/BufferVisualization/CustomDepth.uasset" 13
"../../../Engine/Content/Functions/Engine_MaterialFunctions02/Utility/VectorLength.uasset" 14
"../../../Engine/Content/BufferVisualization/CustomDepthWorldUnits.uasset" 15
"../../../Engine/Content/Functions/Engine_MaterialFunctions02/Utility/BreakOutFloat2Components.uasset" 16
"../../../Engine/Content/Functions/Engine_MaterialFunctions01/Texturing/ScaleUVsByCenter.uasset" 17
"../../../Engine/Content/Functions/Engine_MaterialFunctions02/ScreenResolution.uasset" 18
"../../../Engine/Content/Functions/Engine_MaterialFunctions02/Texturing/ScreenAlignedUVs.uasset" 19
"../../../Engine/Content/Functions/Engine_MaterialFunctions02/Utility/MakeFloat2.uasset" 20
"../../../Engine/Content/Functions/Engine_MaterialFunctions02/Utility/MakeFloat3.uasset" 21
"../../../Engine/Content/EngineMaterials/MiniFont.uasset" 22
"../../../Engine/Content/BufferVisualization/CustomStencil.uasset" 23
"../../../Engine/Content/BufferVisualization/FinalImage.uasset" 24
"../../../Engine/Content/BufferVisualization/LightingModel.uasset" 25
"../../../Engine/Content/BufferVisualization/MaterialAO.uasset" 26
"../../../Engine/Content/BufferVisualization/Metallic.uasset" 27
"../../../Engine/Content/BufferVisualization/Opacity.uasset" 28
"../../../Engine/Content/BufferVisualization/PostTonemapHDRColor.uasset" 29
"../../../Engine/Content/BufferVisualization/PreTonemapHDRColor.uasset" 30
"../../../Engine/Content/BufferVisualization/Roughness.uasset" 31
"../../../Engine/Content/BufferVisualization/SceneColor.uasset" 32
"../../../Engine/Content/BufferVisualization/SceneDepth.uasset" 33
"../../../Engine/Content/BufferVisualization/SceneDepthWorldUnits.uasset" 34
"../../../Engine/Content/BufferVisualization/SeparateTranslucencyA.uasset" 35
"../../../Engine/Content/BufferVisualization/SeparateTranslucencyRGB.uasset" 36
"../../../Engine/Content/BufferVisualization/Specular.uasset" 37
"../../../Engine/Content/BufferVisualization/SubsurfaceColor.uasset" 38
"../../../Engine/Content/BufferVisualization/WorldNormal.uasset" 39
"../../../Engine/Content/EditorLandscapeResources/DataLayer.uasset" 40
"../../../Engine/Content/EditorLandscapeResources/DefaultAlphaTexture.uasset" 41
"../../../Engine/Content/EditorLandscapeResources/LandscapeGizmoHeight_Mat.uasset" 42
"../../../Engine/Content/EditorLandscapeResources/LandscapeGizmo_Mat.uasset" 43
"../../../Engine/Content/EditorLandscapeResources/LandscapeGizmo_Mat_Copied.uasset" 44
"../../../Engine/Content/EditorLandscapeResources/SplineEditorMeshMat.uasset" 45
"../../../Engine/Content/EditorLandscapeResources/SplineEditorMesh.uasset" 46
"../../../Engine/Content/EditorMaterials/Cross.uasset" 47
"../../../Engine/Content/EditorMaterials/Cross_Mat.uasset" 48
"../../../Engine/Content/EditorMaterials/GizmoMaterial.uasset" 49
"../../../Engine/Content/Functions/Engine_MaterialFunctions02/Utility/Sign.uasset" 50
"../../../Engine/Content/Functions/Engine_MaterialFunctions02/Utility/Round.uasset" 51
"../../../Engine/Content/Functions/Engine_MaterialFunctions02/ExampleContent/Textures/flipbook.uasset" 52
"../../../Engine/Content/Functions/Engine_MaterialFunctions02/Texturing/FlipBook.uasset" 53
"../../../Engine/Content/EditorResources/T_EditorHelp.uasset" 54
"../../../Engine/Content/EditorMaterials/HelpActorMaterial.uasset" 55
"../../../Engine/Content/EditorMaterials/CompositeARGBLayer.uasset" 56
"../../../Engine/Content/EditorMaterials/TilingAALineIntegral.uasset" 57
"../../../Engine/Content/EditorMaterials/TilingAALineBoxFiltered.uasset" 58
"../../../Engine/Content/Functions/Engine_MaterialFunctions03/Procedurals/ComputeFilterWidth.uasset" 59
"../../../Engine/Content/EditorMaterials/TilingAADots.uasset" 60
"../../../Engine/Content/EditorMaterials/Cascade/CASC_Cross.uasset" 61
"../../../Engine/Content/EditorMaterials/Cascade/CASC_None.uasset" 62
"../../../Engine/Content/Functions/Engine_MaterialFunctions03/Blends/Blend_Screen.uasset" 63
"../../../Engine/Content/EditorMaterials/TilingAAGrid.uasset" 64
"../../../Engine/Content/EditorMaterials/LevelGridMaterial.uasset" 65
"../../../Engine/Content/EditorMaterials/MakeCompositeARGBLayer.uasset" 66
"../../../Engine/Content/EditorResources/LevelGrid1DStripes.uasset" 67
"../../../Engine/Content/EditorMaterials/TextureGridCascaded1D.uasset" 68
"../../../Engine/Content/EditorMaterials/TextureGridCascaded2D.uasset" 69
"../../../Engine/Content/EditorMaterials/LevelGridMaterial2.uasset" 70
"../../../Engine/Content/EditorMaterials/MAT_Groups_Toggle.uasset" 71
"../../../Engine/Content/EditorMaterials/MAT_Groups_Visibility.uasset" 72
"../../../Engine/Content/EditorMaterials/PhAT_BoneSelectedMaterial.uasset" 73
"../../../Engine/Content/EditorMaterials/PhAT_ElemSelectedMaterial.uasset" 74
"../../../Engine/Content/EditorMaterials/PhAT_NoCollisionMaterial.uasset" 75
"../../../Engine/Content/EditorMaterials/PhAT_UnselectedMaterial.uasset" 76
"../../../Engine/Content/EditorMaterials/PreviewShadowIndicator.uasset" 77
"../../../Engine/Content/EditorMaterials/PreviewShadowIndicatorMaterial.uasset" 78
"../../../Engine/Content/EditorMaterials/TargetIcon.uasset" 79
"../../../Engine/Content/EditorMaterials/Tick.uasset" 80
"../../../Engine/Content/EditorMaterials/Tick_Mat.uasset" 81
"../../../Engine/Content/EditorMaterials/WidgetGridVertexColorMaterial.uasset" 82
"../../../Engine/Content/EditorMaterials/WidgetGridVertexColorMaterial_Ma.uasset" 83
"../../../Engine/Content/EditorMaterials/WidgetMaterial.uasset" 84
"../../../Engine/Content/EditorMaterials/WidgetMaterial_Current.uasset" 85
"../../../Engine/Content/EditorMaterials/WidgetMaterial_X.uasset" 86
"../../../Engine/Content/EditorMaterials/WidgetMaterial_Y.uasset" 87
"../../../Engine/Content/EditorMaterials/WidgetMaterial_Z.uasset" 88
"../../../Engine/Content/EditorMaterials/WidgetVertexColorMaterial.uasset" 89
"../../../Engine/Content/EditorMaterials/AssetViewer/EpicQuadPanorama_CC+EV1.uasset" 90
"../../../Engine/Content/EditorMaterials/MatineeGroups/MAT_ColorTrack.uasset" 91
"../../../Engine/Content/EditorMaterials/MatineeGroups/MAT_Groups_Anim.uasset" 92
"../../../Engine/Content/EditorMaterials/MatineeGroups/MAT_Groups_AudioMaster.uasset" 93
"../../../Engine/Content/EditorMaterials/MatineeGroups/MAT_Groups_Director.uasset" 94
"../../../Engine/Content/EditorMaterials/MatineeGroups/MAT_Groups_Event.uasset" 95
"../../../Engine/Content/EditorMaterials/MatineeGroups/MAT_Groups_Fade.uasset" 96
"../../../Engine/Content/EditorMaterials/MatineeGroups/MAT_Groups_Float.uasset" 97
"../../../Engine/Content/EditorMaterials/MatineeGroups/MAT_Groups_Move.uasset" 98
"../../../Engine/Content/EditorMaterials/MatineeGroups/MAT_Groups_Slomo.uasset" 99
"../../../Engine/Content/EditorMaterials/MatineeGroups/MAT_Groups_Sound.uasset" 100
"../../../Engine/Content/EditorMaterials/MatineeGroups/MAT_Groups_Vector.uasset" 101
"../../../Engine/Content/EditorMaterials/ParticleSystems/PSysThumbnail_NoImage.uasset" 102
"../../../Engine/Content/EditorMaterials/ParticleSystems/PSysThumbnail_OOD.uasset" 103
"../../../Engine/Content/EngineMaterials/Grid.uasset" 104
"../../../Engine/Content/EditorMaterials/Thumbnails/FloorPlaneMaterial.uasset" 105
"../../../Engine/Content/EditorMeshes/EditorCylinder.uasset" 106
"../../../Engine/Content/EditorMeshes/EditorPlane.uasset" 107
"../../../Engine/Content/EditorMaterials/Thumbnails/SkySphereMaterial.uasset" 108
"../../../Engine/Content/EditorMeshes/EditorSkySphere.uasset" 109
"../../../Engine/Content/EditorMeshes/EditorSphere.uasset" 110
"../../../Engine/Content/EditorResources/MatineeCam_D.uasset" 111
"../../../Engine/Content/EditorMaterials/MatineeCam_mat.uasset" 112
"../../../Engine/Content/EditorMeshes/MatineeCam_SM.uasset" 113
"../../../Engine/Content/EditorMaterials/Camera/CineMat.uasset" 114
"../../../Engine/Content/EditorMaterials/Camera/MI_CineMat_CameraBody.uasset" 115
"../../../Engine/Content/EngineDebugMaterials/M_SimpleOpaque.uasset" 116
"../../../Engine/Content/EditorMaterials/Camera/MI_CineMat_CamViewFinder.uasset" 117
"../../../Engine/Content/EditorMeshes/Camera/SM_CineCam.uasset" 118
"../../../Engine/Content/EditorMaterials/Camera/MI_CineMat_Rig.uasset" 119
"../../../Engine/Content/EditorMeshes/Camera/SM_CraneRig_Arm.uasset" 120
"../../../Engine/Content/EditorMeshes/Camera/SM_CraneRig_Base.uasset" 121
"../../../Engine/Content/EditorMeshes/Camera/SM_CraneRig_Body.uasset" 122
"../../../Engine/Content/EditorMeshes/Camera/SM_CraneRig_Mount.uasset" 123
"../../../Engine/Content/EditorMeshes/Camera/SM_RailRig_Mount.uasset" 124
"../../../Engine/Content/EditorMeshes/Camera/SM_RailRig_Track.uasset" 125
"../../../Engine/Content/EditorResources/Bad.uasset" 126
"../../../Engine/Content/EditorResources/BSPVertex.uasset" 127
"../../../Engine/Content/EditorResources/EmptyActor.uasset" 128
"../../../Engine/Content/EditorResources/MatInstActSprite.uasset" 129
"../../../Engine/Content/EditorResources/SceneManager.uasset" 130
"../../../Engine/Content/EditorResources/SmallFont.uasset" 131
"../../../Engine/Content/EditorResources/S_Actor.uasset" 132
"../../../Engine/Content/EditorResources/S_DecalActorIcon.uasset" 133
"../../../Engine/Content/EditorResources/S_Emitter.uasset" 134
"../../../Engine/Content/EditorResources/S_ExpoHeightFog.uasset" 135
"../../../Engine/Content/EditorResources/S_FTest.uasset" 136
"../../../Engine/Content/EditorResources/S_KBSJoint.uasset" 137
"../../../Engine/Content/EditorResources/S_KHinge.uasset" 138
"../../../Engine/Content/EditorResources/S_KPrismatic.uasset" 139
"../../../Engine/Content/EditorResources/S_LevelSequence.uasset" 140
"../../../Engine/Content/EditorResources/S_NavP.uasset" 141
"../../../Engine/Content/EditorResources/S_Note.uasset" 142
"../../../Engine/Content/EditorResources/S_Player.uasset" 143
"../../../Engine/Content/EditorResources/S_PortalActorIcon2.uasset" 144
"../../../Engine/Content/EditorResources/S_RadForce.uasset" 145
"../../../Engine/Content/EditorResources/S_ReflActorIcon.uasset" 146
"../../../Engine/Content/EditorResources/S_Terrain.uasset" 147
"../../../Engine/Content/EditorResources/S_TextRenderActorIcon.uasset" 148
"../../../Engine/Content/EditorResources/S_Thruster.uasset" 149
"../../../Engine/Content/EditorResources/S_Trigger.uasset" 150
"../../../Engine/Content/EditorResources/S_VectorFieldVol.uasset" 151
"../../../Engine/Content/EditorResources/S_WindDirectional.uasset" 152
"../../../Engine/Content/EditorResources/AI/S_NavLink.uasset" 153
"../../../Engine/Content/EditorResources/LightIcons/SkyLight.uasset" 154
"../../../Engine/Content/EditorResources/LightIcons/S_LightDirectional.uasset" 155
"../../../Engine/Content/EditorResources/LightIcons/S_LightDirectionalMove.uasset" 156
"../../../Engine/Content/EditorResources/LightIcons/S_LightError.uasset" 157
"../../../Engine/Content/EditorResources/LightIcons/S_LightPoint.uasset" 158
"../../../Engine/Content/EditorResources/LightIcons/S_LightPointMove.uasset" 159
"../../../Engine/Content/EditorResources/LightIcons/S_LightSpot.uasset" 160
"../../../Engine/Content/EditorResources/LightIcons/S_LightSpotMove.uasset" 161
"../../../Engine/Content/EditorResources/SequenceRecorder/Countdown.uasset" 162
"../../../Engine/Content/EditorResources/SequenceRecorder/RecordingIndicator.uasset" 163
"../../../Engine/Content/EditorResources/Spline/T_Loft_Spline.uasset" 164
"../../../Engine/Content/EditorSounds/Notifications/CompileFailed.uasset" 165
"../../../Engine/Content/EditorSounds/Notifications/CompileFailed_Cue.uasset" 166
"../../../Engine/Content/EditorSounds/Notifications/CompileSuccess.uasset" 167
"../../../Engine/Content/EditorSounds/Notifications/CompileStart_Cue.uasset" 168
"../../../Engine/Content/EditorSounds/Notifications/CompileSuccess_Cue.uasset" 169
"../../../Engine/Content/EngineDamageTypes/DmgTypeBP_Environmental.uasset" 170
"../../../Engine/Content/EngineDebugMaterials/HeatmapGradient.uasset" 171
"../../../Engine/Content/EngineDebugMaterials/BoneWeightMaterial.uasset" 172
"../../../Engine/Content/EngineDebugMaterials/ClothMaterial.uasset" 173
"../../../Engine/Content/EngineDebugMaterials/DebugMeshMaterial.uasset" 174
"../../../Engine/Content/EngineDebugMaterials/GeomMaterial.uasset" 175
"../../../Engine/Content/Functions/Engine_MaterialFunctions01/Shading/ConvertFromDiffSpec.uasset" 176
"../../../Engine/Content/EngineDebugMaterials/LevelColorationLitMaterial.uasset" 177
"../../../Engine/Content/EngineDebugMaterials/LevelColorationUnlitMaterial.uasset" 178
"../../../Engine/Content/EngineMaterials/DefaultWhiteGrid.uasset" 179
"../../../Engine/Content/EngineDebugMaterials/MAT_LevelColorationLitLightmapUV.uasset" 180
"../../../Engine/Content/EngineDebugMaterials/M_SimpleTranslucent.uasset" 181
"../../../Engine/Content/EngineDebugMaterials/ShadedLevelColorationLitMaterial.uasset" 182
"../../../Engine/Content/EngineDebugMaterials/ShadedLevelColorationUnlitMateri.uasset" 183
"../../../Engine/Content/EngineDebugMaterials/VertexColorMaterial.uasset" 184
"../../../Engine/Content/EngineDebugMaterials/VertexColorViewMode_AlphaAsColor.uasset" 185
"../../../Engine/Content/EngineDebugMaterials/VertexColorViewMode_BlueOnly.uasset" 186
"../../../Engine/Content/EngineDebugMaterials/VertexColorViewMode_ColorOnly.uasset" 187
"../../../Engine/Content/EngineDebugMaterials/VertexColorViewMode_GreenOnly.uasset" 188
"../../../Engine/Content/EngineDebugMaterials/VertexColorViewMode_RedOnly.uasset" 189
"../../../Engine/Content/EngineDebugMaterials/WireframeMaterial.uasset" 190
"../../../Engine/Content/EngineFonts/Faces/RobotoBold.uasset" 191
"../../../Engine/Content/EngineFonts/Faces/RobotoBoldItalic.uasset" 192
"../../../Engine/Content/EngineFonts/Faces/RobotoItalic.uasset" 193
"../../../Engine/Content/EngineFonts/Faces/RobotoLight.uasset" 194
"../../../Engine/Content/EngineFonts/Faces/RobotoRegular.uasset" 195
"../../../Engine/Content/EngineFonts/Roboto.uasset" 196
"../../../Engine/Content/EngineFonts/Faces/RobotoTiny.uasset" 197
"../../../Engine/Content/EngineFonts/RobotoTiny.uasset" 198
"../../../Engine/Content/EngineFonts/SmallFont.uasset" 199
"../../../Engine/Content/EngineFonts/TinyFont.uasset" 200
"../../../Engine/Content/EngineResources/WhiteSquareTexture.uasset" 201
"../../../Engine/Content/EngineMaterials/BlinkingCaret.uasset" 202
"../../../Engine/Content/EngineMaterials/DefaultBloomKernel.uasset" 203
"../../../Engine/Content/EngineMaterials/DefaultBokeh.uasset" 204
"../../../Engine/Content/EngineMaterials/DefaultDiffuse.uasset" 205
"../../../Engine/Content/EngineMaterials/DefaultDeferredDecalMaterial.uasset" 206
"../../../Engine/Content/EngineMaterials/DefaultLightFunctionMaterial.uasset" 207
"../../../Engine/Content/EngineMaterials/DefaultNormal.uasset" 208
"../../../Engine/Content/EngineMaterials/DefaultPostProcessMaterial.uasset" 209
"../../../Engine/Content/EngineFonts/RobotoDistanceField.uasset" 210
"../../../Engine/Content/EngineMaterials/DefaultTextMaterialOpaque.uasset" 211
"../../../Engine/Content/EngineMaterials/EditorBrushMaterial.uasset" 212
"../../../Engine/Content/EngineMaterials/Good64x64TilingNoiseHighFreq.uasset" 213
"../../../Engine/Content/EngineMaterials/Grid_N.uasset" 214
"../../../Engine/Content/EngineMaterials/HighResolutionScreenshotMaskFunction.uasset" 215
"../../../Engine/Content/EngineMaterials/HighResScreenshot.uasset" 216
"../../../Engine/Content/EngineMaterials/HighResScreenshotCaptureRegion.uasset" 217
"../../../Engine/Content/EngineMaterials/HighResScreenshotMask.uasset" 218
"../../../Engine/Content/EngineMaterials/LandscapeHolePhysicalMaterial.uasset" 219
"../../../Engine/Content/EngineMaterials/InvalidLightmapSettings.uasset" 220
"../../../Engine/Content/EngineMaterials/M_InvalidLightmapSettings.uasset" 221
"../../../Engine/Content/EngineMaterials/PaperDiffuse.uasset" 222
"../../../Engine/Content/EngineMaterials/PaperNormal.uasset" 223
"../../../Engine/Content/EngineMaterials/PhAT_JointLimitMaterial.uasset" 224
"../../../Engine/Content/EngineMaterials/PhysMat_Rubber.uasset" 225
"../../../Engine/Content/EngineMaterials/PreintegratedSkinBRDF.uasset" 226
"../../../Engine/Content/EngineMaterials/RemoveSurfaceMaterial.uasset" 227
"../../../Engine/Content/EngineMaterials/WeightMapPlaceholderTexture.uasset" 228
"../../../Engine/Content/EngineMaterials/Widget3DPassThrough.uasset" 229
"../../../Engine/Content/EngineMaterials/Widget3DPassThrough_Masked.uasset" 230
"../../../Engine/Content/EngineMaterials/Widget3DPassThrough_Opaque.uasset" 231
"../../../Engine/Content/EngineMaterials/Widget3DPassThrough_Masked_OneSided.uasset" 232
"../../../Engine/Content/EngineMaterials/Widget3DPassThrough_Opaque_OneSided.uasset" 233
"../../../Engine/Content/EngineMaterials/Widget3DPassThrough_Translucent.uasset" 234
"../../../Engine/Content/EngineMaterials/Widget3DPassThrough_Translucent_OneSided.uasset" 235
"../../../Engine/Content/EngineMeshes/Cube.uasset" 236
"../../../Engine/Content/EngineMeshes/Cylinder.uasset" 237
"../../../Engine/Content/EngineMeshes/Sphere.uasset" 238
"../../../Engine/Content/EngineResources/Black.uasset" 239
"../../../Engine/Content/EngineResources/DefaultTexture.uasset" 240
"../../../Engine/Content/EngineResources/DefaultTextureCube.uasset" 241
"../../../Engine/Content/EngineResources/GradientTexture0.uasset" 242
"../../../Engine/Content/EngineResources/StreamingPauseIcon.uasset" 243
"../../../Engine/Content/EngineResources/M_StreamingPause.uasset" 244
"../../../Engine/Content/EngineSounds/Master.uasset" 245
"../../../Engine/Content/Functions/Engine_MaterialFunctions01/Shading/PowerToRoughness.uasset" 246
"../../../Engine/Content/Maps/Templates/Thumbnails/Default.uasset" 247
"../../../Engine/Content/Maps/Templates/Thumbnails/VR-Basic.uasset" 248
"../../../Engine/Content/MapTemplates/Sky/DaylightAmbientCubemap.uasset" 249
"../../../Engine/Content/MobileResources/T_MobileControls_texture.uasset" 250
"../../../Engine/Content/MobileResources/T_MobileMenu2.uasset" 251
"../../../Engine/Content/MobileResources/HUD/AnalogHat.uasset" 252
"../../../Engine/Content/MobileResources/HUD/VirtualJoystick_Background.uasset" 253
"../../../Engine/Content/MobileResources/HUD/VirtualJoystick_Thumb.uasset" 254
"../../../Engine/Content/MobileResources/HUD/DefaultVirtualJoysticks.uasset" 255
"../../../Engine/Content/MobileResources/HUD/LeftVirtualJoystickOnly.uasset" 256
"../../../Engine/Content/MobileResources/HUD/MobileHUDButton1_off.uasset" 257
"../../../Engine/Content/MobileResources/HUD/MobileHUDButton1_on.uasset" 258
"../../../Engine/Content/MobileResources/HUD/MobileHUDButton2_off.uasset" 259
"../../../Engine/Content/MobileResources/HUD/MobileHUDButton2_on.uasset" 260
"../../../Engine/Content/MobileResources/HUD/MobileHUDButton3.uasset" 261
"../../../Engine/Content/MobileResources/HUD/MobileHUDButtonFire.uasset" 262
"../../../Engine/Content/MobileResources/HUD/MobileHUDDirectionPad.uasset" 263
"../../../Engine/Content/MobileResources/HUD/MobileHUDDirectionPad2.uasset" 264
"../../../Engine/Content/MobileResources/HUD/MobileHUDDirectionPad3.uasset" 265
"../../../Engine/Content/MobileResources/HUD/MobileHUDDirectionStick.uasset" 266
"../../../Engine/Content/MobileResources/HUD/T_Castle_ThumbstickInner.uasset" 267
"../../../Engine/Content/MobileResources/HUD/T_Castle_ThumbstickOutter.uasset" 268
"../../../Engine/Content/Tutorial/ContentIntroCurve.uasset" 269
"../../../Engine/Content/Tutorial/Basics/TutorialAssets/icon_tab_Levels_40x.uasset" 270
"../../../Engine/Content/Tutorial/BlueprintTutorials/TutorialAssets/BlueprintInterface_64x.uasset" 271
"../../../Engine/Content/Tutorial/BlueprintTutorials/TutorialAssets/BlueprintMacroLibrary_64x.uasset" 272
"../../../Engine/Content/Tutorial/BlueprintTutorials/TutorialAssets/Blueprint_64x.uasset" 273
"../../../Engine/Content/Tutorial/BlueprintTutorials/TutorialAssets/Tutorial_BP_Interface.uasset" 274
"../../../Engine/Content/Tutorial/Foliage/TutorialAssets/Foliage.uasset" 275
"../../../Engine/Content/Tutorial/Landscape/TutorialAssets/Landscape.uasset" 276
"../../../Engine/Content/Tutorial/Paper2D/TutorialAssets/Paper2DFlipbook_TutorialIcon.uasset" 277
"../../../Engine/Content/Tutorial/Paper2D/TutorialAssets/Paper2DSprite_TutorialIcon.uasset" 278
"../../../Engine/Content/Tutorial/SubEditors/TutorialAssets/icon_Editor_Preferences_General_40x.uasset" 279
"../../../Engine/Content/Tutorial/SubEditors/TutorialAssets/icon_ShowSkeletalMeshes_40x.uasset" 280
"../../../Engine/Content/Tutorial/SubEditors/TutorialAssets/TutorialMaterial.uasset" 281
"../../../Engine/Content/Tutorial/SubEditors/TutorialAssets/T_SmokeSubUV_8X8.uasset" 282
"../../../Engine/Content/Tutorial/SubEditors/TutorialAssets/T_soft_smoke.uasset" 283
"../../../Engine/Content/Tutorial/SubEditors/TutorialAssets/M_smoke_subUV_blackbody.uasset" 284
"../../../Engine/Content/Tutorial/SubEditors/TutorialAssets/TutorialParticleSystem.uasset" 285
"../../../Engine/Content/EditorMeshes/EditorCube.uasset" 286
"../../../Engine/Content/Tutorial/SubEditors/TutorialAssets/Tutorial_DM.uasset" 287
"../../../Engine/Content/VREditor/Devices/Generic/GenericHMDMaterial.uasset" 288
"../../../Engine/Content/VREditor/Devices/Generic/GenericHMD.uasset" 289
"../../../Engine/Content/VREditor/FloatingText/LineMaterial.uasset" 290
"../../../Engine/Content/VREditor/FloatingText/JointSphere.uasset" 291
"../../../Engine/Content/VREditor/FloatingText/LineSegmentCylinder.uasset" 292
"../../../Engine/Content/VREditor/Fonts/VRText_RobotoLarge.uasset" 293
"../../../Engine/Content/VREditor/Fonts/VRTextMaterial.uasset" 294
"../../../Engine/Content/VREditor/Fonts/TranslucentVRTextMaterial.uasset" 295
"../../../Engine/Content/VREditor/LaserPointer/VR_LaserPower_01.uasset" 296
"../../../Engine/Content/VREditor/TransformGizmo/TransformGizmoMaterial.uasset" 297
"../../../Engine/Content/VREditor/LaserPointer/HoverMaterial.uasset" 298
"../../../Engine/Content/VREditor/TransformGizmo/TranslucentTransformGizmoMaterial.uasset" 299
"../../../Engine/Content/VREditor/LaserPointer/TranslucentHoverMaterial.uasset" 300
"../../../Engine/Content/VREditor/LaserPointer/HoverMesh.uasset" 301
"../../../Engine/Content/VREditor/LaserPointer/LaserPointerMaterial.uasset" 302
"../../../Engine/Content/VREditor/LaserPointer/LaserPointerMaterialInst.uasset" 303
"../../../Engine/Content/VREditor/LaserPointer/TranslucentLaserPointerMaterialInst.uasset" 304
"../../../Engine/Content/VREditor/LaserPointer/LaserPointerMesh.uasset" 305
"../../../Engine/Content/VREditor/LaserPointer/LaserPointerMesh_End.uasset" 306
"../../../Engine/Content/VREditor/LaserPointer/LaserPointerMesh_Start.uasset" 307
"../../../Engine/Content/Functions/Engine_MaterialFunctions02/Utility/BreakOutFloat3Components.uasset" 308
"../../../Engine/Content/Functions/Engine_MaterialFunctions02/Math/Transform3x3Matrix.uasset" 309
"../../../Engine/Content/Functions/Engine_MaterialFunctions02/SplitComponents.uasset" 310
"../../../Engine/Content/VREditor/SnapGrid/SnapGridMaterial.uasset" 311
"../../../Engine/Content/VREditor/SnapGrid/SnapGridPlaneMesh.uasset" 312
"../../../Engine/Content/VREditor/Sounds/VR_teleport_Cue.uasset" 313
"../../../Engine/Content/VREditor/Sounds/UI/Click_on_Button_Cue.uasset" 314
"../../../Engine/Content/VREditor/Sounds/UI/Dockable_Window_Close.uasset" 315
"../../../Engine/Content/VREditor/Sounds/UI/Dockable_Window_Drop.uasset" 316
"../../../Engine/Content/VREditor/Sounds/UI/Dockable_Window_Open.uasset" 317
"../../../Engine/Content/VREditor/Sounds/UI/Dockable_Window_Pick_Up.uasset" 318
"../../../Engine/Content/VREditor/Sounds/UI/Drop_Item_From_ContentBrowser.uasset" 319
"../../../Engine/Content/VREditor/Sounds/UI/Floating_UI_Open-001.uasset" 320
"../../../Engine/Content/VREditor/Sounds/UI/Gizmo_Handle_Clicked.uasset" 321
"../../../Engine/Content/VREditor/Sounds/UI/Object_PickUp.uasset" 322
"../../../Engine/Content/VREditor/Sounds/UI/Object_Snaps_To_Another_Actor.uasset" 323
"../../../Engine/Content/VREditor/Sounds/UI/Object_Snaps_To_Grid.uasset" 324
"../../../Engine/Content/VREditor/Sounds/UI/Radial_Menu_FadeOut.uasset" 325
"../../../Engine/Content/VREditor/Sounds/UI/Scaling_Down.uasset" 326
"../../../Engine/Content/VREditor/Sounds/UI/Scaling_Up.uasset" 327
"../../../Engine/Content/VREditor/Sounds/UI/Selection_Changes.uasset" 328
"../../../Engine/Content/VREditor/Sounds/UI/Teleport_Mode_Entered.uasset" 329
"../../../Engine/Content/VREditor/Teleport/TeleportDirectionMaterial.uasset" 330
"../../../Engine/Content/VREditor/Teleport/TeleportDirectionMaterial_Inst.uasset" 331
"../../../Engine/Content/VREditor/Teleport/TeleportDirectionMesh.uasset" 332
"../../../Engine/Content/VREditor/TransformGizmo/BoundingBoxCorner.uasset" 333
"../../../Engine/Content/VREditor/TransformGizmo/BoundingBoxEdge.uasset" 334
"../../../Engine/Content/VREditor/TransformGizmo/PlaneTranslationHandle.uasset" 335
"../../../Engine/Content/VREditor/TransformGizmo/RotationHandle.uasset" 336
"../../../Engine/Content/VREditor/TransformGizmo/RotationHandleFull.uasset" 337
"../../../Engine/Content/VREditor/TransformGizmo/RotationHandleIndicator.uasset" 338
"../../../Engine/Content/VREditor/TransformGizmo/RotationHandleQuarter.uasset" 339
"../../../Engine/Content/VREditor/TransformGizmo/Main.uasset" 340
"../../../Engine/Content/VREditor/TransformGizmo/Xray.uasset" 341
"../../../Engine/Content/VREditor/TransformGizmo/SM_Dialog_Close.uasset" 342
"../../../Engine/Content/VREditor/TransformGizmo/SM_Dialog_Move.uasset" 343
"../../../Engine/Content/VREditor/TransformGizmo/SM_Sequencer_Key.uasset" 344
"../../../Engine/Content/VREditor/TransformGizmo/StartRotationHandleIndicator.uasset" 345
"../../../Engine/Content/VREditor/TransformGizmo/TransformGizmoMaterial_Inst.uasset" 346
"../../../Engine/Content/VREditor/TransformGizmo/TranslateArrowHandle.uasset" 347
"../../../Engine/Content/VREditor/TransformGizmo/TranslationHandle.uasset" 348
"../../../Engine/Content/VREditor/TransformGizmo/TranslucentTransformGizmoMaterial_Inst.uasset" 349
"../../../Engine/Content/VREditor/TransformGizmo/UniformScaleHandle.uasset" 350
"../../../Engine/Content/VREditor/UI/KeyDiskMaterial.uasset" 351
"../../../Engine/Content/VREditor/UI/DiscMaterial.uasset" 352
"../../../Engine/Content/VREditor/UI/SM_Radial_Disk.uasset" 353
"../../../Engine/Content/Functions/Engine_MaterialFunctions01/Gradient/RadialGradient.uasset" 354
"../../../Engine/Content/VREditor/WorldMovementGrid/SimpleGrid.uasset" 355
"../../../Engine/Content/VREditor/WorldMovementGrid/GridMaterial.uasset" 356
"../../../Engine/Content/Functions/Engine_MaterialFunctions01/Density/ExponentialDensity.uasset" 357
"../../../Engine/Content/VREditor/WorldMovementGrid/GridPostProcess.uasset" 358
"../../../Engine/Content/EditorLandscapeResources/FlattenHeightMat.uasset" 359
"../../../Engine/Content/VREditor/WorldMovementGrid/PlaneMesh.uasset" 360
"../../../Engine/Plugins/2D/Paper2D/Content/DummySprite.uasset" 361
"../../../Engine/Plugins/2D/Paper2D/Content/DefaultPaperTerrainMaterial.uasset" 362
"../../../Engine/Plugins/2D/Paper2D/Content/DefaultSpriteMaterial.uasset" 363
"../../../Engine/Plugins/2D/Paper2D/Content/MaskedUnlitSpriteMaterial.uasset" 364
"../../../Engine/Plugins/2D/Paper2D/Content/OpaqueUnlitSpriteMaterial.uasset" 365
"../../../Engine/Plugins/2D/Paper2D/Content/PlaceholderTextures/DummySpriteTexture.uasset" 366
"../../../Engine/Plugins/Runtime/GearVR/Content/Textures/GearVRController_AO.uasset" 367
"../../../Engine/Plugins/Runtime/GearVR/Content/Textures/GearVRController_Color.uasset" 368
"../../../Engine/Plugins/Runtime/GearVR/Content/Textures/GearVRController_Normal.uasset" 369
"../../../Engine/Plugins/Runtime/GearVR/Content/Materials/GearVRControllerMaterial.uasset" 370
"../../../Engine/Plugins/Runtime/GearVR/Content/Meshes/GearVrController.uasset" 371
"../../../Blocks/Plugins/AirSim/Content/Blueprints/BP_CameraDirector.uasset" 372
"../../../Blocks/Plugins/AirSim/Content/HUDAssets/MaterialFunctions/DepthPerspectiveMaterialFunc.uasset" 373
"../../../Blocks/Plugins/AirSim/Content/HUDAssets/DepthPerspectiveMaterial.uasset" 374
"../../../Engine/Content/Functions/Engine_MaterialFunctions02/Utility/CameraDirectionVector.uasset" 375
"../../../Blocks/Plugins/AirSim/Content/HUDAssets/MaterialFunctions/DepthPlannerMaterialFunc.uasset" 376
"../../../Blocks/Plugins/AirSim/Content/HUDAssets/DepthPlannerMaterial.uasset" 377
"../../../Blocks/Plugins/AirSim/Content/HUDAssets/MaterialFunctions/ColorizeMatarialFunction.uasset" 378
"../../../Blocks/Plugins/AirSim/Content/HUDAssets/ComputerVisionParams.uasset" 379
"../../../Blocks/Plugins/AirSim/Content/HUDAssets/DepthVisMaterial.uasset" 380
"../../../Blocks/Plugins/AirSim/Content/HUDAssets/DisparityMaterial.uasset" 381
"../../../Blocks/Plugins/AirSim/Content/HUDAssets/irPalette.uasset" 382
"../../../Blocks/Plugins/AirSim/Content/HUDAssets/seg_color_pallet.uasset" 383
"../../../Blocks/Plugins/AirSim/Content/HUDAssets/InfraredMaterial.uasset" 384
"../../../Blocks/Plugins/AirSim/Content/HUDAssets/NormalsMaterial.uasset" 385
"../../../Blocks/Plugins/AirSim/Content/HUDAssets/SegmentationMaterial.uasset" 386
"../../../Blocks/Plugins/AirSim/Content/StarterContent/Textures/T_MacroVariation.uasset" 387
"../../../Blocks/Plugins/AirSim/Content/StarterContent/Textures/T_Tech_Hex_Tile_M.uasset" 388
"../../../Blocks/Plugins/AirSim/Content/StarterContent/Textures/T_Tech_Hex_Tile_N.uasset" 389
"../../../Blocks/Plugins/AirSim/Content/StarterContent/Materials/M_Tech_Hex_Tile_Pulse.uasset" 390
"../../../Engine/Content/BasicShapes/Cone.uasset" 391
"../../../Blocks/Plugins/AirSim/Content/Blueprints/BP_PIPCamera.uasset" 392
"../../../Blocks/Plugins/AirSim/Content/Models/MiniQuadCopter/Prop_Red_Plastic.uasset" 393
"../../../Blocks/Plugins/AirSim/Content/Models/MiniQuadCopter/Prop_White_Plastic.uasset" 394
"../../../Blocks/Plugins/AirSim/Content/Models/QuadBodyPhysicsMaterial.uasset" 395
"../../../Blocks/Plugins/AirSim/Content/Models/QuadRotor1/T_QuadCopter_Prop.uasset" 396
"../../../Blocks/Plugins/AirSim/Content/Models/QuadRotor1/Material_001.uasset" 397
"../../../Blocks/Plugins/AirSim/Content/Models/QuadRotor1/Propeller.uasset" 398
"../../../Engine/Content/Functions/Engine_MaterialFunctions03/Blends/Blend_Overlay.uasset" 399
"../../../Blocks/Plugins/AirSim/Content/Models/QuadRotor1/T_QuadCopter_Body_2.uasset" 400
"../../../Blocks/Plugins/AirSim/Content/Models/QuadRotor1/Material.uasset" 401
"../../../Blocks/Plugins/AirSim/Content/Models/QuadRotor1/T_QuadCopter_Frame.uasset" 402
"../../../Blocks/Plugins/AirSim/Content/Models/QuadRotor1/Material_002.uasset" 403
"../../../Blocks/Plugins/AirSim/Content/Models/QuadRotor1/T_QuadCopter_Carmera.uasset" 404
"../../../Blocks/Plugins/AirSim/Content/Models/QuadRotor1/Material_004.uasset" 405
"../../../Blocks/Plugins/AirSim/Content/Models/QuadRotor1/Quadrotor1.uasset" 406
"../../../Blocks/Plugins/AirSim/Content/Blueprints/BP_FlyingPawn.uasset" 407
"../../../Blocks/Plugins/AirSim/Content/HUDAssets/DebugWidgetMonospace.uasset" 408
"../../../Blocks/Plugins/AirSim/Content/HUDAssets/SubWindow_Mat.uasset" 409
"../../../Blocks/Plugins/AirSim/Content/HUDAssets/record-button.uasset" 410
"../../../Blocks/Plugins/AirSim/Content/Blueprints/BP_SimHUDWidget.uasset" 411
"../../../Blocks/Plugins/AirSim/Content/HUDAssets/MaterialFunctions/NoiseHorizWaveFunc.uasset" 412
"../../../Blocks/Plugins/AirSim/Content/HUDAssets/MaterialFunctions/RandFunc.uasset" 413
"../../../Blocks/Plugins/AirSim/Content/HUDAssets/MaterialFunctions/ScreenXYNoiseFunc.uasset" 414
"../../../Blocks/Plugins/AirSim/Content/HUDAssets/MaterialFunctions/SpeedupSeriesFunc.uasset" 415
"../../../Engine/Content/Functions/Engine_MaterialFunctions02/Utility/MakeFloat4.uasset" 416
"../../../Blocks/Plugins/AirSim/Content/HUDAssets/CameraSensorNoise.uasset" 417
"../../../Blocks/Plugins/AirSim/Content/StarterContent/Textures/T_Burst_M.uasset" 418
"../../../Blocks/Plugins/AirSim/Content/StarterContent/Particles/Materials/M_Burst.uasset" 419
"../../../Blocks/Plugins/AirSim/Content/StarterContent/Textures/T_Explosion_SubUV.uasset" 420
"../../../Blocks/Plugins/AirSim/Content/StarterContent/Particles/Materials/M_explosion_subUV.uasset" 421
"../../../Blocks/Plugins/AirSim/Content/StarterContent/Particles/Materials/m_flare_01.uasset" 422
"../../../Blocks/Plugins/AirSim/Content/StarterContent/Particles/Materials/M_radial_ramp.uasset" 423
"../../../Blocks/Plugins/AirSim/Content/StarterContent/Textures/T_Smoke_SubUV.uasset" 424
"../../../Blocks/Plugins/AirSim/Content/StarterContent/Textures/T_Smoke_Tiled_D.uasset" 425
"../../../Blocks/Plugins/AirSim/Content/StarterContent/Particles/Materials/M_smoke_subUV.uasset" 426
"../../../Blocks/Plugins/AirSim/Content/StarterContent/Particles/P_Explosion.uasset" 427
"../../../Blocks/Plugins/AirSim/Content/VehicleAdv/Sound/Engine_att.uasset" 428
"../../../Blocks/Plugins/AirSim/Content/VehicleAdv/Sound/Engine_Speed_01_Loop.uasset" 429
"../../../Blocks/Plugins/AirSim/Content/VehicleAdv/Sound/Engine_Speed_03_Loop.uasset" 430
"../../../Blocks/Plugins/AirSim/Content/VehicleAdv/Sound/Engine_Speed_05_Loop.uasset" 431
"../../../Blocks/Plugins/AirSim/Content/VehicleAdv/Sound/Engine_Loop_Cue.uasset" 432
"../../../Blocks/Plugins/AirSim/Content/VehicleAdv/Vehicle/VehicleSkeleton.uasset" 433
"../../../Blocks/Plugins/AirSim/Content/VehicleAdv/Vehicle/VehicleAnimationBlueprint.uasset" 434
"../../../Blocks/Plugins/AirSim/Content/VehicleAdv/PhysicsMaterials/NonSlippery.uasset" 435
"../../../Blocks/Plugins/AirSim/Content/VehicleAdv/PhysicsMaterials/Slippery.uasset" 436
"../../../Blocks/Plugins/AirSim/Content/VehicleAdv/Vehicle/WheelData/Vehicle_BackTireConfig.uasset" 437
"../../../Blocks/Plugins/AirSim/Content/VehicleAdv/Vehicle/WheelData/Vehicle_FrontTireConfig.uasset" 438
"../../../Engine/Content/Maps/Entry.umap" 439
"../../../Engine/Content/EditorBlueprintResources/StandardMacros.uasset" 440
"../../../Engine/Content/EngineSky/C_Sky_Cloud_Color.uasset" 441
"../../../Engine/Content/EngineSky/C_Sky_Horizon_Color.uasset" 442
"../../../Engine/Content/EngineSky/C_Sky_Zenith_Color.uasset" 443
"../../../Engine/Content/EngineSky/T_Sky_Blue.uasset" 444
"../../../Engine/Content/EngineSky/T_Sky_Clouds_M.uasset" 445
"../../../Engine/Content/EngineSky/T_Sky_Stars.uasset" 446
"../../../Engine/Content/EngineSky/M_Sky_Panning_Clouds2.uasset" 447
"../../../Engine/Content/EngineSky/SM_SkySphere.uasset" 448
"../../../Engine/Content/EngineSky/BP_Sky_Sphere.uasset" 449
"../../../Blocks/Content/Geometry/Meshes/CubeMaterial.uasset" 450
"../../../Blocks/Content/Flying/Meshes/BaseMaterial.uasset" 451
"../../../Blocks/Content/Flying/Meshes/GrayMaterial.uasset" 452
"../../../Blocks/Content/Geometry/Meshes/1M_Cube_Chamfer.uasset" 453
"../../../Blocks/Content/Geometry/Meshes/TemplateFloor.uasset" 454
"../../../Blocks/Content/FlyingCPP/Maps/FlyingExampleMap.umap" 455
